// Jest Snapshot v1, https://goo.gl/fbAQLP

exports[`by default correctly renders the Question component with 4 responses 1`] = `
<div>
  <div>
    This is a test prompt.
  </div>
  <ul>
    <li
      key="0"
    >
      <input
        checked={false}
        id="q1-r1"
        name="q1"
        onChange={[Function]}
        type="radio"
      />
      <label
        htmlFor="q1-r1"
      >
        <ReactMarkdown
          astPlugins={Array []}
          escapeHtml={true}
          plugins={Array []}
          rawSourcePos={false}
          renderers={Object {}}
          skipHtml={false}
          source="First response."
          sourcePos={false}
          transformLinkUri={[Function]}
        />
      </label>
    </li>
    <li
      key="1"
    >
      <input
        checked={false}
        id="q1-r2"
        name="q1"
        onChange={[Function]}
        type="radio"
      />
      <label
        htmlFor="q1-r2"
      >
        <ReactMarkdown
          astPlugins={Array []}
          escapeHtml={true}
          plugins={Array []}
          rawSourcePos={false}
          renderers={Object {}}
          skipHtml={false}
          source="Second response."
          sourcePos={false}
          transformLinkUri={[Function]}
        />
      </label>
    </li>
    <li
      key="2"
    >
      <input
        checked={false}
        id="q1-r3"
        name="q1"
        onChange={[Function]}
        type="radio"
      />
      <label
        htmlFor="q1-r3"
      >
        <ReactMarkdown
          astPlugins={Array []}
          escapeHtml={true}
          plugins={Array []}
          rawSourcePos={false}
          renderers={Object {}}
          skipHtml={false}
          source="Third response."
          sourcePos={false}
          transformLinkUri={[Function]}
        />
      </label>
    </li>
    <li
      key="3"
    >
      <input
        checked={false}
        id="q1-r4"
        name="q1"
        onChange={[Function]}
        type="radio"
      />
      <label
        htmlFor="q1-r4"
      >
        <ReactMarkdown
          astPlugins={Array []}
          escapeHtml={true}
          plugins={Array []}
          rawSourcePos={false}
          renderers={Object {}}
          skipHtml={false}
          source="Fourth response."
          sourcePos={false}
          transformLinkUri={[Function]}
        />
      </label>
    </li>
  </ul>
</div>
`;

exports[`by default correctly renders the Question component with 4 responses and a selection 1`] = `
<div>
  <div>
    This is a test prompt.
  </div>
  <ul>
    <li
      key="0"
    >
      <input
        checked={false}
        id="q1-r1"
        name="q1"
        onChange={[Function]}
        type="radio"
      />
      <label
        htmlFor="q1-r1"
      >
        <ReactMarkdown
          astPlugins={Array []}
          escapeHtml={true}
          plugins={Array []}
          rawSourcePos={false}
          renderers={Object {}}
          skipHtml={false}
          source="First response."
          sourcePos={false}
          transformLinkUri={[Function]}
        />
      </label>
    </li>
    <li
      key="1"
    >
      <input
        checked={true}
        id="q1-r2"
        name="q1"
        onChange={[Function]}
        type="radio"
      />
      <label
        htmlFor="q1-r2"
      >
        <ReactMarkdown
          astPlugins={Array []}
          escapeHtml={true}
          plugins={Array []}
          rawSourcePos={false}
          renderers={Object {}}
          skipHtml={false}
          source="Second response."
          sourcePos={false}
          transformLinkUri={[Function]}
        />
      </label>
    </li>
    <li
      key="2"
    >
      <input
        checked={false}
        id="q1-r3"
        name="q1"
        onChange={[Function]}
        type="radio"
      />
      <label
        htmlFor="q1-r3"
      >
        <ReactMarkdown
          astPlugins={Array []}
          escapeHtml={true}
          plugins={Array []}
          rawSourcePos={false}
          renderers={Object {}}
          skipHtml={false}
          source="Third response."
          sourcePos={false}
          transformLinkUri={[Function]}
        />
      </label>
    </li>
    <li
      key="3"
    >
      <input
        checked={false}
        id="q1-r4"
        name="q1"
        onChange={[Function]}
        type="radio"
      />
      <label
        htmlFor="q1-r4"
      >
        <ReactMarkdown
          astPlugins={Array []}
          escapeHtml={true}
          plugins={Array []}
          rawSourcePos={false}
          renderers={Object {}}
          skipHtml={false}
          source="Fourth response."
          sourcePos={false}
          transformLinkUri={[Function]}
        />
      </label>
    </li>
  </ul>
</div>
`;

exports[`by default correctly renders the Question component with no responses 1`] = `
<div>
  <div>
    This is a test prompt.
  </div>
  <ul />
</div>
`;
